{"tracks":{"href":"https://api.spotify.com/v1/search?query=5150&type=track&offset=0&limit=1","items":[{"album":{"album_type":"album","artists":[{"external_urls":{"spotify":"https://open.spotify.com/artist/2cnMpRsOVqtPMfq7YiFE6K"},"href":"https://api.spotify.com/v1/artists/2cnMpRsOVqtPMfq7YiFE6K","id":"2cnMpRsOVqtPMfq7YiFE6K","name":"Van Halen","type":"artist","uri":"spotify:artist:2cnMpRsOVqtPMfq7YiFE6K"}],"available_markets":["AD","AR","AT","AU","BE","BG","BO","BR","CA","CH","CL","CO","CR","CY","CZ","DE","DK","DO","EC","EE","ES","FI","FR","GB","GR","GT","HK","HN","HU","ID","IE","IS","IT","JP","LI","LT","LU","LV","MC","MT","MX","MY","NI","NL","NO","NZ","PA","PE","PH","PL","PT","PY","SE","SG","SK","SV","TH","TR","TW","US","UY"],"external_urls":{"spotify":"https://open.spotify.com/album/5Ew5vOg3PYyT9QUPCrdIZq"},"href":"https://api.spotify.com/v1/albums/5Ew5vOg3PYyT9QUPCrdIZq","id":"5Ew5vOg3PYyT9QUPCrdIZq","images":[{"height":640,"url":"https://i.scdn.co/image/0e5cd24faf8c3e5eced188d7c0eab13481210941","width":640},{"height":300,"url":"https://i.scdn.co/image/72b430ec492d3865fe10c25f41d40f91608c6ae8","width":300},{"height":64,"url":"https://i.scdn.co/image/e815b838a16239fd4a62a3606bf715d60f56f706","width":64}],"name":"5150","release_date":"1986-03-24","release_date_precision":"day","type":"album","uri":"spotify:album:5Ew5vOg3PYyT9QUPCrdIZq"},"artists":[{"external_urls":{"spotify":"https://open.spotify.com/artist/2cnMpRsOVqtPMfq7YiFE6K"},"href":"https://api.spotify.com/v1/artists/2cnMpRsOVqtPMfq7YiFE6K","id":"2cnMpRsOVqtPMfq7YiFE6K","name":"Van Halen","type":"artist","uri":"spotify:artist:2cnMpRsOVqtPMfq7YiFE6K"}],"available_markets":["AD","AR","AT","AU","BE","BG","BO","BR","CA","CH","CL","CO","CR","CY","CZ","DE","DK","DO","EC","EE","ES","FI","FR","GB","GR","GT","HK","HN","HU","ID","IE","IS","IT","JP","LI","LT","LU","LV","MC","MT","MX","MY","NI","NL","NO","NZ","PA","PE","PH","PL","PT","PY","SE","SG","SK","SV","TH","TR","TW","US","UY"],"disc_number":1,"duration_ms":227693,"explicit":false,"external_ids":{"isrc":"USWB10902261"},"external_urls":{"spotify":"https://open.spotify.com/track/0TaT50ZZxT4ytZxuqkE3A9"},"href":"https://api.spotify.com/v1/tracks/0TaT50ZZxT4ytZxuqkE3A9","id":"0TaT50ZZxT4ytZxuqkE3A9","name":"Why Can't This Be Love","popularity":63,"preview_url":"https://p.scdn.co/mp3-preview/d9f039eb9addda53dcc15bbbbe24f3c0103c953b?cid=708eac11d669499a841b4eb683f943d8","track_number":2,"type":"track","uri":"spotify:track:0TaT50ZZxT4ytZxuqkE3A9"}],"limit":1,"next":"https://api.spotify.com/v1/search?query=5150&type=track&offset=1&limit=1","offset":0,"previous":null,"total":933}}